{
  "requests": {
    "balance": {
      "path": "/v1/simbachain/balance/.*",
      "method": "GET",
      "response": {
        "statusCode": 200,
        "headers": {
          "Content-Type": "application/json"
        },
        "body": {
          "poa": true,
          "currency": "never gets called because poa is true",
          "amount": 10
        }
      }
    },
    "balance1": {
      "path": "/v1/simbachain1/balance/.*",
      "method": "GET",
      "response": {
        "statusCode": 200,
        "headers": {
          "Content-Type": "application/json"
        },
        "body": {
          "poa": false,
          "currency": "ethers",
          "amount": 10
        }
      }
    },
    "funds": {
      "path": "/v1/simbachain/balance/.*",
      "method": "POST",
      "response": {
        "statusCode": 200,
        "headers": {
          "Content-Type": "application/json"
        },
        "body": {
          "txnId": "never gets called because poa is true"
        }
      }
    },
    "funds1": {
      "path": "/v1/simbachain1/balance/.*",
      "method": "POST",
      "response": {
        "statusCode": 200,
        "headers": {
          "Content-Type": "application/json"
        },
        "body": {
          "txnId": "1234567890"
        }
      }
    },
    "method1_sign": {
      "path": "/v1/simbachain/transaction/46bcae17-af2f-419c-98c1-d934e67f14cf/",
      "method": "POST",
      "response": {
        "statusCode": 200,
        "headers": {
          "Content-Type": "application/json"
        },
        "body": {
          "requestId": "1234",
          "state": "INITIALIZED"
        }
      }
    },
    "txnstatus": {
      "path": "/v1/simbachain/transaction/1234567890",
      "method": "GET",
      "response": {
        "statusCode": 200,
        "headers": {
          "Content-Type": "application/json"
        },
        "body": {
          "id": "46bcae17-af2f-419c-98c1-d934e67f14cf",
          "submitted": false,
          "payload": {
            "raw": {
              "to": "0x6f84419344a1caa3c87ecfddc5cdb5272eb24be4",
              "gas": "0x175f7",
              "data": "0x53df945100000000000000000000000000000000000000000000000000000000000000a",
              "from": "0x805cb72c96ab98cc111259b1dd3285388db096ee",
              "nonce": "0x0",
              "gasLimit": 95735,
              "gasPrice": "0x0"
            },
            "inputs": {
              "sentBy": "Andrew",
              "assetId": "1234",
              "name": "Foo"
            },
            "method": "method1"
          },
          "timestamp": "2019-09-23T20:26:35.532Z",
          "smart_contract_id": "701b726d-f4d9-4d45-a7f8-f3c3ccc0db08",
          "bytes_stored_on_blockchain": "0",
          "application_id": "dc659bc6-f776-4f06-869f-b7c121ae3698",
          "organisation_id": "b6f2ff06-f382-4d06-99bf-14ed3edfa8c9",
          "bundle_id": "cfe093da-65aa-448e-80bd-788d77079e48",
          "bytes_stored_on_datastore": "0",
          "adapter_id": "b3b779c9-b74d-4cab-be21-6a5ff2b70662",
          "data_store_id": "b9bcbed1-69b1-443b-8d27-72bcc3045bfd",
          "method_id": "8082a894-49cc-42a4-ae65-e58aeb90569c",
          "parent_id": "\\0",
          "is_asset": true,
          "user_id": 162,
          "receipt": null,
          "group_id": null,
          "member_id": null,
          "error": null,
          "transaction_hash": null,
          "error_details": null,
          "status": "PENDING"
        }
      }
    },
    "method1": {
      "path": "/v1/simbachain/method1/",
      "method": "POST",
      "response": {
        "statusCode": 200,
        "headers": {
          "Content-Type": "application/json"
        },
        "body": {
          "id": "46bcae17-af2f-419c-98c1-d934e67f14cf",
          "submitted": false,
          "payload": {
            "raw": {
              "to": "0x6f84419344a1caa3c87ecfddc5cdb5272eb24be4",
              "gas": "0x175f7",
              "data": "0x53df945100000000000000000000000000000000000000000000000000000000000000a",
              "from": "0x805cb72c96ab98cc111259b1dd3285388db096ee",
              "nonce": "0x0",
              "gasLimit": 95735,
              "gasPrice": "0x0"
            },
            "inputs": {
              "sentBy": "Andrew",
              "assetId": "1234",
              "name": "Foo"
            },
            "method": "method1"
          },
          "timestamp": "2019-09-23T20:26:35.532Z",
          "smart_contract_id": "701b726d-f4d9-4d45-a7f8-f3c3ccc0db08",
          "bytes_stored_on_blockchain": "0",
          "application_id": "dc659bc6-f776-4f06-869f-b7c121ae3698",
          "organisation_id": "b6f2ff06-f382-4d06-99bf-14ed3edfa8c9",
          "bundle_id": "cfe093da-65aa-448e-80bd-788d77079e48",
          "bytes_stored_on_datastore": "0",
          "adapter_id": "b3b779c9-b74d-4cab-be21-6a5ff2b70662",
          "data_store_id": "b9bcbed1-69b1-443b-8d27-72bcc3045bfd",
          "method_id": "8082a894-49cc-42a4-ae65-e58aeb90569c",
          "parent_id": "\\0",
          "is_asset": true,
          "user_id": 162,
          "receipt": null,
          "group_id": null,
          "member_id": null,
          "error": null,
          "transaction_hash": null,
          "error_details": null
        }
      }
    },
    "method2_sign": {
      "path": "/v1/simbachain/transaction/46bcae17-0000-0000-0000-d934e67f14cf/",
      "method": "POST",
      "response": {
        "statusCode": 200,
        "headers": {
          "Content-Type": "application/json"
        },
        "body": {
          "requestId": "1234",
          "state": "INITIALIZED"
        }
      }
    },
    "method2": {
      "path": "/v1/simbachain/method2/",
      "method": "POST",
      "response": {
        "statusCode": 200,
        "headers": {
          "Content-Type": "application/json"
        },
        "body": {
          "id": "46bcae17-0000-0000-0000-d934e67f14cf",
          "submitted": false,
          "payload": {
            "raw": {
              "to": "0x6f84419344a1caa3c87ecfddc5cdb5272eb24be4",
              "gas": "0x175f7",
              "data": "0x53df945100000000000000000000000000000000000000000000000000000000000000a",
              "from": "0x805cb72c96ab98cc111259b1dd3285388db096ee",
              "nonce": "0x0",
              "gasLimit": 95735,
              "gasPrice": "0x0"
            },
            "inputs": {
              "number": 5,
              "assetId": "1234",
              "name": "Foo",
              "_bundleHash": "46bcae17-0000-0000-0000-d934e67f14cf"
            },
            "method": "method2"
          },
          "timestamp": "2019-09-23T20:26:35.532Z",
          "smart_contract_id": "701b726d-f4d9-4d45-a7f8-f3c3ccc0db08",
          "bytes_stored_on_blockchain": "0",
          "application_id": "dc659bc6-f776-4f06-869f-b7c121ae3698",
          "organisation_id": "b6f2ff06-f382-4d06-99bf-14ed3edfa8c9",
          "bundle_id": "cfe093da-65aa-448e-80bd-788d77079e48",
          "bytes_stored_on_datastore": "0",
          "adapter_id": "b3b779c9-b74d-4cab-be21-6a5ff2b70662",
          "data_store_id": "b9bcbed1-69b1-443b-8d27-72bcc3045bfd",
          "method_id": "8082a894-49cc-42a4-ae65-e58aeb90569c",
          "parent_id": "\\0",
          "is_asset": true,
          "user_id": 162,
          "receipt": null,
          "group_id": null,
          "member_id": null,
          "error": null,
          "transaction_hash": null,
          "error_details": null
        }
      }
    },
    "list": {
      "path": "/v1/simbachain/transaction/.*",
      "method": "GET",
      "response": {
        "statusCode": 200,
        "headers": {
          "Content-Type": "application/json"
        },
        "body": {
          "count": 3,
          "previous": "${host}:${port}/v1/simbachain/transaction/",
          "next": "${host}:${port}/v1/simbachain/transaction/",
          "results": [
            {
              "id": "46bcae17-af2f-419c-98c1-d934e67f14cf",
              "submitted": false,
              "payload": {
                "raw": {
                  "to": "0x6f84419344a1caa3c87ecfddc5cdb5272eb24be4",
                  "gas": "0x175f7",
                  "data": "0x53df945100000000000000000000000000000000000000000000000000000000000000a",
                  "from": "0x805cb72c96ab98cc111259b1dd3285388db096ee",
                  "nonce": "0x0",
                  "gasLimit": 95735,
                  "gasPrice": "0x0"
                },
                "inputs": {
                  "sentBy": "Andrew",
                  "assetId": "1234",
                  "name": "Foo"
                },
                "method": "method1"
              },
              "error": null,
              "transaction_hash": null,
              "error_details": null
            },
            {
              "id": "46bcae17-af2f-419c-98c1-d934e67f14cf",
              "submitted": false,
              "payload": {
                "raw": {
                  "to": "0x6f84419344a1caa3c87ecfddc5cdb5272eb24be4",
                  "gas": "0x175f7",
                  "data": "0x53df945100000000000000000000000000000000000000000000000000000000000000a",
                  "from": "0x805cb72c96ab98cc111259b1dd3285388db096ee",
                  "nonce": "0x0",
                  "gasLimit": 95735,
                  "gasPrice": "0x0"
                },
                "inputs": {
                  "sentBy": "Andrew",
                  "assetId": "1234",
                  "name": "Foo"
                },
                "method": "method1"
              },
              "error": null,
              "transaction_hash": null,
              "error_details": null
            }
          ]
        }
      }
    },
    "listMethod": {
      "path": "/v1/simbachain/method1/.*",
      "method": "GET",
      "response": {
        "statusCode": 200,
        "headers": {
          "Content-Type": "application/json"
        },
        "body": {
          "count": 3,
          "previous": "${host}:${port}/v1/simbachain/method1/",
          "next": "${host}:${port}/v1/simbachain/method1/",
          "results": [
            {
              "id": "46bcae17-af2f-419c-98c1-d934e67f14cf",
              "submitted": false,
              "payload": {
                "raw": {
                  "to": "0x6f84419344a1caa3c87ecfddc5cdb5272eb24be4",
                  "gas": "0x175f7",
                  "data": "0x53df945100000000000000000000000000000000000000000000000000000000000000a",
                  "from": "0x805cb72c96ab98cc111259b1dd3285388db096ee",
                  "nonce": "0x0",
                  "gasLimit": 95735,
                  "gasPrice": "0x0"
                },
                "inputs": {
                  "sentBy": "Andrew",
                  "assetId": "1234",
                  "name": "Foo"
                },
                "method": "method1"
              },
              "error": null,
              "transaction_hash": null,
              "error_details": null
            },
            {
              "id": "46bcae17-af2f-419c-98c1-d934e67f14cf",
              "submitted": false,
              "payload": {
                "raw": {
                  "to": "0x6f84419344a1caa3c87ecfddc5cdb5272eb24be4",
                  "gas": "0x175f7",
                  "data": "0x53df945100000000000000000000000000000000000000000000000000000000000000a",
                  "from": "0x805cb72c96ab98cc111259b1dd3285388db096ee",
                  "nonce": "0x0",
                  "gasLimit": 95735,
                  "gasPrice": "0x0"
                },
                "inputs": {
                  "sentBy": "Andrew",
                  "assetId": "1234",
                  "name": "Foo"
                },
                "method": "method1"
              },
              "error": null,
              "transaction_hash": null,
              "error_details": null
            }
          ]
        }
      }
    },
    "metadata": {
      "path": "/v1/simbachain/",
      "method": "GET",
      "parameters": {
        "format": [
          "openapi"
        ]
      },
      "response": {
        "statusCode": 200,
        "headers": {
          "Content-Type": "application/json"
        },
        "body": {
          "info": {
            "x-simba-attrs": {
              "faucet": null,
              "name": "simbachain",
              "network": "Quorum",
              "poa": true,
              "type": "simbachain.com",
              "methods": {
                "method1": {
                  "parameters": {
                    "assetId": {
                      "type": "string",
                      "title": "assetId"
                    },
                    "createdBy": {
                      "type": "string",
                      "title": "createdBy"
                    },
                    "name": {
                      "type": "string",
                      "title": "name"
                    }
                  }
                },
                "method2": {
                  "parameters": {
                    "_files": {
                      "type": "file",
                      "title": "file"
                    },
                    "assetId": {
                      "type": "string",
                      "title": "assetId"
                    },
                    "number": {
                      "type": "int32",
                      "title": "number"
                    },
                    "name": {
                      "type": "string",
                      "title": "name"
                    }
                  }
                }
              },
              "api_name": "simbachain",
              "network_type": "quorum",
              "simba_faucet": false
            }
          }
        }
      }
    },
    "metadata1": {
      "path": "/v1/simbachain1/",
      "method": "GET",
      "parameters": {
        "format": [
          "openapi"
        ]
      },
      "response": {
        "statusCode": 200,
        "headers": {
          "Content-Type": "application/json"
        },
        "body": {
          "info": {
            "x-simba-attrs": {
              "faucet": "https://faucet.com",
              "name": "simbachain1",
              "network": "Ethereum",
              "poa": false,
              "type": "simbachain.com",
              "methods": {
                "method1": {
                  "parameters": {
                    "assetId": {
                      "type": "string",
                      "title": "assetId"
                    },
                    "createdBy": {
                      "type": "string",
                      "title": "createdBy"
                    },
                    "name": {
                      "type": "string",
                      "title": "name"
                    }
                  }
                },
                "method2": {
                  "parameters": {
                    "_files": {
                      "type": "file",
                      "title": "file"
                    },
                    "assetId": {
                      "type": "string",
                      "title": "assetId"
                    },
                    "number": {
                      "type": "int32",
                      "title": "number"
                    },
                    "name": {
                      "type": "string",
                      "title": "name"
                    }
                  }
                }
              },
              "api_name": "simbachain1",
              "network_type": "ethereum",
              "simba_faucet": true
            }
          }
        }
      }
    }
  }
}